…
city_homicide_logistic_results =
  city_homicide_data %>%
  mutate(model = map(data, city_hom_logistic),
        tidy_results = model %>% map(broom::tidy)) %>%
  select(city_state, tidy_results) %>%
  unnest() %>% 
  mutate(OR = exp(estimate),
         lower_CI_OR = exp(estimate - 1.96*std.error),
         upper_CI_OR = exp(estimate + 1.96*std.error)) %>% 
  select(city_state, term, OR, lower_CI_OR, upper_CI_OR) %>% 
  filter(term == "victim_racenon-white") %>% 
  mutate(term = str_replace(term, "victim_racenon-white", "race:non-white")) 

city_homicide_logistic_results 
## # A tibble: 47 x 5
##    city_state     term              OR lower_CI_OR upper_CI_OR
##    <chr>          <chr>          <dbl>       <dbl>       <dbl>
##  1 Albuquerque,NM race:non-white 0.741      0.451        1.22 
##  2 Atlanta,GA     race:non-white 0.753      0.432        1.31 
##  3 Baltimore,MD   race:non-white 0.441      0.313        0.620
##  4 Baton Rouge,LA race:non-white 0.668      0.313        1.43 
##  5 Birmingham,AL  race:non-white 1.04       0.615        1.76 
##  6 Boston,MA      race:non-white 0.115      0.0472       0.278
##  7 Buffalo,NY     race:non-white 0.390      0.213        0.715
##  8 Charlotte,NC   race:non-white 0.558      0.321        0.969
##  9 Chicago,IL     race:non-white 0.562      0.431        0.733
## 10 Cincinnati,OH  race:non-white 0.318      0.184        0.551
## # ... with 37 more rows
```
…
